A:X0222X
A#:X13331
A#4:XX3341
A#m:X13321
A#m7:X13121
A#7:X1323X
A7:X02020
Am:X02210
Am7:XX1112
B:X24442
B7:021202
Bm:X24432
Bm7:X20232
C:X32010
C#:XX3121
C#m:=XX2120
C#m7:XX2424
C7:X32310
Cm7:X36353
Cm:X35543
Cm7:X13121
D:XX0323
D7:XX0212
Dm:XX0231
Dm7:XX0211
E:022100
E7:020100
Em:022000
Em7:022030
F:133211
F7:131211
Fm:133111
Fm7:131111
G:320003
G7:320001
Gm:355333
Gm7:353333
